id,name,model_id:id,group_id:id,perm_read,perm_write,perm_create,perm_unlink
access_res_partner_grade_employee,res.partner.grade,model_res_partner_grade,base.group_user,1,0,0,0
access_res_partner_grade_portal,res.partner.grade,model_res_partner_grade,base.group_portal,1,0,0,0
access_res_partner_grade_public,res.partner.grade,model_res_partner_grade,base.group_public,1,0,0,0
