<?xml version="1.0" encoding="UTF-8" standalone="no"?>
<!-- Created with Inkscape (http://www.inkscape.org/) -->

<svg
   xmlns:dc="http://purl.org/dc/elements/1.1/"
   xmlns:cc="http://creativecommons.org/ns#"
   xmlns:rdf="http://www.w3.org/1999/02/22-rdf-syntax-ns#"
   xmlns:svg="http://www.w3.org/2000/svg"
   xmlns="http://www.w3.org/2000/svg"
   xmlns:sodipodi="http://sodipodi.sourceforge.net/DTD/sodipodi-0.dtd"
   xmlns:inkscape="http://www.inkscape.org/namespaces/inkscape"
   id="svg2"
   version="1.1"
   inkscape:version="0.91 r13725"
   width="90"
   height="90"
   viewBox="0 0 90 90"
   sodipodi:docname="icon.svg">
  <metadata
     id="metadata8">
    <rdf:RDF>
      <cc:Work
         rdf:about="">
        <dc:format>image/svg+xml</dc:format>
        <dc:type
           rdf:resource="http://purl.org/dc/dcmitype/StillImage" />
        <dc:title />
      </cc:Work>
    </rdf:RDF>
  </metadata>
  <defs
     id="defs6" />
  <sodipodi:namedview
     pagecolor="#ffffff"
     bordercolor="#666666"
     borderopacity="1"
     objecttolerance="10"
     gridtolerance="10"
     guidetolerance="10"
     inkscape:pageopacity="0"
     inkscape:pageshadow="2"
     inkscape:window-width="1600"
     inkscape:window-height="836"
     id="namedview4"
     showgrid="false"
     inkscape:zoom="3.7083822"
     inkscape:cx="81.05327"
     inkscape:cy="21.427306"
     inkscape:window-x="0"
     inkscape:window-y="27"
     inkscape:window-maximized="1"
     inkscape:current-layer="svg2" />
  <rect
     style="opacity:1;fill:#208689;fill-opacity:1;stroke:none;stroke-width:2;stroke-miterlimit:4;stroke-dasharray:none;stroke-dashoffset:0;stroke-opacity:1"
     id="rect4152"
     width="90"
     height="90"
     x="0"
     y="0" />
  <path
     style="opacity:1;fill:#155658;fill-opacity:1;stroke:none;stroke-width:2;stroke-miterlimit:4;stroke-dasharray:none;stroke-dashoffset:0;stroke-opacity:1"
     d="M 23.001953 33.992188 L 0 58.207031 L 0 90 L 48.212891 90 L 64.582031 72.767578 L 64.15625 72.369141 A 28.179405 27.370426 0 0 1 46.515625 78.404297 A 28.179405 27.370426 0 0 1 18.335938 51.035156 A 28.179405 27.370426 0 0 1 23.869141 34.800781 L 23.001953 33.992188 z "
     id="rect4154" />
  <path
     inkscape:connector-curvature="0"
     id="path4146"
     d="m 43.594591,78.957419 c -6.95721,-0.77468 -12.63125,-3.471072 -17.44066,-8.288057 -4.46951,-4.476547 -7.07532,-9.616935 -8.08966,-15.958165 -0.20372,-1.273573 -0.24559,-1.968451 -0.24195,-4.015264 0.005,-2.543228 0.12383,-3.7845 0.57297,-5.961374 1.75386,-8.500443 7.47936,-15.836298 15.34666,-19.663042 1.78483,-0.868164 3.75232,-1.633986 3.87717,-1.509144 0.0373,0.03728 -0.14797,0.774122 -0.4117,1.637387 -0.39911,1.306368 -0.48697,1.75892 -0.52395,2.698756 l -0.0444,1.12918 -1.06003,0.544577 c -5.56993,2.861444 -9.87927,7.89865 -11.76586,13.753165 -0.75066,2.329448 -1.02894,3.999948 -1.09224,6.556607 -0.0924,3.731421 0.34919,6.253803 1.64945,9.421963 0.24211,0.589913 0.48296,1.072568 0.53521,1.072568 0.0522,0 0.26413,-0.334146 0.47084,-0.742549 0.26994,-0.533312 0.52694,-0.856879 0.91204,-1.148295 0.80774,-0.611235 2.86104,-2.766004 3.70162,-3.884538 0.90091,-1.198809 1.76419,-2.89741 2.0407,-4.015269 0.12074,-0.488145 0.23561,-1.497055 0.28131,-2.470697 0.0425,-0.905098 0.10002,-1.682523 0.12789,-1.727604 0.0279,-0.04506 0.43278,0.226489 0.89982,0.603488 1.61352,1.302467 2.96739,1.951952 4.87433,2.338348 1.82429,0.369651 4.9058,0.02248 5.95324,-0.670663 0.22712,-0.150296 0.5253,-0.483603 0.66263,-0.740676 0.49053,-0.918263 0.26481,-3.473636 -0.52524,-5.945966 -0.7286,-2.280061 -1.8823,-4.748637 -3.30555,-7.072888 -0.44817,-0.731878 -0.81485,-1.384461 -0.81485,-1.450182 0,-0.215295 0.47406,-0.28371 1.87937,-0.271216 2.21065,0.01966 4.05385,0.501478 7.37441,1.927717 1.68551,0.723952 2.0935,1.021379 2.47738,1.806008 0.16271,0.332564 0.39908,0.647801 0.52525,0.700526 0.12619,0.05273 1.56936,0.421706 3.20707,0.819956 1.63771,0.398249 3.13563,0.820165 3.32873,0.937598 0.54962,0.334243 0.78821,0.821568 0.78869,1.610913 10e-4,2.014371 -0.94415,4.241881 -2.44631,5.764128 -1.60654,1.628017 -3.81145,2.708629 -6.73178,3.299208 -0.66402,0.134279 -1.26543,0.327669 -1.50252,0.483142 -0.64793,0.424876 -0.76344,0.822464 -1.05371,3.626784 -0.14417,1.3929 -0.3039,2.574314 -0.35496,2.625365 -0.0511,0.05105 -0.49798,0.03082 -0.99317,-0.04501 -0.81427,-0.124652 -0.93288,-0.174864 -1.24045,-0.525175 -0.48832,-0.556159 -0.93959,-1.597314 -1.07834,-2.487901 -0.21484,-1.379018 -0.89445,-2.019143 -2.00417,-1.887711 -1.9956,0.236346 -3.37622,2.749296 -3.67342,6.686211 l -0.074,0.979976 -0.92109,0.775642 c -2.64725,2.229236 -4.26204,5.366325 -4.70833,9.147025 l -0.0744,0.630135 0.52927,0.335657 c 0.49018,0.310863 0.53949,0.321672 0.66766,0.146389 0.0761,-0.104094 0.13839,-0.353922 0.13839,-0.555177 0,-0.567941 0.42638,-2.399864 0.78691,-3.380997 0.8145,-2.216444 2.53404,-4.512747 4.21512,-5.628922 l 0.59144,-0.392693 0.0631,-0.842598 c 0.25238,-3.369994 0.9029,-5.332202 2.02572,-6.110313 0.80502,-0.55788 1.25581,-0.319338 1.4339,0.758771 0.20942,1.267812 0.68804,2.25494 1.52951,3.154534 0.40523,0.433227 0.57001,0.530091 0.99775,0.586503 1.6289,0.214835 2.7784,0.54619 3.88503,1.119903 1.41657,0.734387 2.02418,1.443884 2.40097,2.803598 0.33196,1.197917 0.96744,2.176822 2.49059,3.836569 0.83846,0.913655 0.85549,1.068488 0.21396,1.944815 -0.21085,0.28801 -0.59584,0.844446 -0.85554,1.23652 -0.59451,0.897567 -1.20842,1.294505 -2.24645,1.452492 -1.10384,0.168002 -5.49478,1.8112 -5.76798,2.158516 -0.24652,0.313399 -0.296,1.24625 -0.0757,1.428124 0.17912,0.147915 2.86084,-0.01388 4.20779,-0.253863 7.56481,-1.347803 13.78537,-5.976991 17.21472,-12.810779 1.61498,-3.218217 2.41819,-6.651653 2.42043,-10.346416 0.002,-2.946065 -0.29999,-4.873813 -1.17688,-7.518149 -1.82823,-5.513189 -5.65792,-10.144374 -10.83117,-13.097965 l -1.28349,-0.73279 -0.0373,-1.287408 c -0.0325,-1.119503 -0.0932,-1.470526 -0.46594,-2.691516 -0.23573,-0.772258 -0.39405,-1.438651 -0.35183,-1.480869 0.26454,-0.264544 4.24552,1.631539 6.3046,3.002794 6.22474,4.14538 10.65893,10.66362 12.14112,17.847417 0.4534,2.197478 0.57085,3.417081 0.57412,5.961373 0.003,2.04239 -0.0399,2.744447 -0.24314,4.015264 -1.01502,6.346612 -3.61602,11.477513 -8.08962,15.958165 -4.77194,4.779463 -10.3218,7.444262 -17.16496,8.241866 -1.51597,0.176692 -4.1848,0.198879 -5.55605,0.04619 z M 50.003041,63.7043 c 0.45059,-0.503946 0.12001,-1.347589 -0.52806,-1.347589 -0.32912,0 -0.82005,0.449127 -0.82005,0.750215 0,0.1156 0.1026,0.340613 0.228,0.500034 0.2725,0.34643 0.85233,0.396821 1.12011,0.09734 z m -0.74931,-23.263532 c 0.58567,-0.836162 -0.51824,-1.726457 -1.17634,-0.94871 -0.43359,0.512405 -0.10406,1.193202 0.57754,1.193202 0.31711,0 0.47178,-0.06315 0.5988,-0.244492 z m -11.10451,7.438474 c -1.78842,-0.396534 -3.23069,-1.247397 -4.71773,-2.783209 l -0.86747,-0.895922 0.0742,-0.739856 c 0.0408,-0.406924 0.19744,-1.341752 0.34808,-2.077399 0.66488,-3.246969 1.6083,-4.959744 3.53576,-6.419138 0.86446,-0.654533 1.81574,-1.155632 2.03449,-1.071687 0.40593,0.155769 2.62634,4.084605 3.52902,6.24432 0.98396,2.35418 1.4537,4.11437 1.57814,5.913553 0.0856,1.237709 -0.0525,1.448006 -1.13852,1.733564 -1.03485,0.272112 -3.35194,0.32282 -4.37595,0.09577 z M 39.645201,31.7085 c -0.54033,-0.686915 -0.47081,-1.138315 0.76797,-4.98659 0.60958,-1.893697 0.83211,-2.727395 0.75332,-2.822329 -0.0615,-0.0741 -1.06256,-0.818946 -2.22458,-1.655212 -2.44156,-1.757088 -3.43446,-2.668996 -3.54446,-3.25531 -0.0966,-0.514868 0.0668,-0.797349 0.63781,-1.102467 0.44761,-0.239192 0.58207,-0.24909 3.83901,-0.282496 2.47768,-0.0254 3.40466,-0.07015 3.48608,-0.168259 0.061,-0.07351 0.48917,-1.295513 0.95148,-2.715572 1.17765,-3.617322 1.53497,-4.302947 2.32488,-4.460928 0.27699,-0.0554 0.41047,-0.0026 0.75627,0.300827 0.5525,0.484324 0.84486,1.158925 1.85971,4.291211 0.53191,1.641754 0.90558,2.626901 1.01186,2.66768 0.0927,0.03559 1.54266,0.06466 3.22221,0.06466 3.27824,0 3.84615,0.07314 4.36695,0.562412 0.35826,0.336563 0.33701,0.816099 -0.0642,1.448728 -0.32487,0.512266 -1.00374,1.056526 -4.21335,3.377873 -0.71005,0.513549 -1.291,1.000991 -1.291,1.083211 0,0.08222 0.39789,1.369914 0.88421,2.861541 1.09392,3.355266 1.21995,4.293126 0.6531,4.859987 -0.33291,0.332902 -0.9588,0.281277 -1.77684,-0.146548 -0.38254,-0.200067 -1.70021,-1.096317 -2.92816,-1.991661 -1.43178,-1.043981 -2.3014,-1.609915 -2.42438,-1.577753 -0.10547,0.0276 -1.20372,0.784598 -2.44056,1.682256 -2.53105,1.836957 -3.24691,2.24748 -3.92269,2.249528 -0.36488,10e-4 -0.50592,-0.05755 -0.68465,-0.284785 z"
     style="fill:#ffffff" />
  <g
     id="g4201">
    <rect
       y="0.95338935"
       x="104.30085"
       height="90"
       width="90"
       id="rect4152-8"
       style="opacity:1;fill:#208689;fill-opacity:1;stroke:none;stroke-width:2;stroke-miterlimit:4;stroke-dasharray:none;stroke-dashoffset:0;stroke-opacity:1" />
    <path
       id="rect4181"
       d="M 126.25195 27.261719 L 104.24414 51.429688 L 104.24414 90.943359 L 156.84766 90.943359 L 174.52734 71.529297 L 173.85742 71.529297 C 172.97622 72.45017 171.94991 73.2651 170.77344 73.921875 C 169.24438 74.77548 166.38209 75.513775 164.71484 75.484375 C 164.29886 75.477175 163.50386 75.390426 162.94922 75.291016 C 160.41403 74.836835 158.17849 73.742617 156.41992 72.095703 C 154.86263 70.637291 153.80124 69.064211 153.11914 67.212891 L 151.83398 67.212891 L 151.91406 67.431641 C 152.10422 67.95161 152.41124 68.676386 152.59766 69.042969 C 152.78409 69.409552 152.90453 69.765304 152.86328 69.832031 C 152.77138 69.980692 131.59379 69.970923 130.70703 69.822266 C 128.64255 69.47517 126.81763 67.733281 126.33789 65.652344 C 126.18984 65.01014 126.16394 38.76822 126.25195 27.261719 z "
       style="opacity:1;fill:#155658;fill-opacity:1;stroke:none;stroke-width:1;stroke-miterlimit:4;stroke-dasharray:none;stroke-dashoffset:0;stroke-opacity:1" />
    <path
       style="fill:#ffffff;stroke:#ffffff;stroke-opacity:1;stroke-width:1;stroke-miterlimit:4;stroke-dasharray:none;fill-opacity:1"
       d="m 162.94923,75.290767 c -2.53519,-0.454181 -4.77134,-1.548399 -6.52991,-3.195313 -1.89461,-1.774311 -3.06425,-3.711538 -3.69668,-6.122598 -0.27253,-1.038996 -0.32954,-1.540543 -0.33573,-2.953265 -0.0115,-2.610767 0.51225,-4.548987 1.79017,-6.625521 1.25475,-2.038905 3.05674,-3.66279 5.24265,-4.724481 1.97004,-0.956844 3.00643,-1.183047 5.4203,-1.183047 1.70634,0 2.18182,0.04446 3.08832,0.28876 4.4762,1.206353 7.9059,4.65384 9.02717,9.073983 1.41012,5.558842 -1.07851,11.223806 -6.18228,14.073015 -1.52906,0.853605 -4.39201,1.591857 -6.05926,1.562457 -0.41598,-0.0072 -1.21011,-0.09458 -1.76475,-0.19399 z m 4.26864,-3.064866 c 2.73043,-0.698328 5.22074,-2.778418 6.37556,-5.325311 0.64863,-1.430512 0.81571,-2.269883 0.81015,-4.070079 -0.004,-1.436848 -0.0479,-1.770683 -0.3524,-2.710161 -1.02195,-3.152443 -3.31015,-5.436768 -6.43796,-6.427043 -1.19359,-0.377903 -3.43084,-0.47893 -4.68645,-0.211647 -4.07339,0.867137 -7.07064,4.11976 -7.62364,8.27321 -0.61989,4.655864 2.47424,9.212926 7.09857,10.454843 1.28912,0.346208 3.49678,0.35363 4.81617,0.01613 z m -4.43009,-4.067639 c -0.3379,-0.162803 -3.61849,-4.448849 -3.87489,-5.062484 -0.32211,-0.770918 0.17735,-1.705982 1.02483,-1.918693 0.68919,-0.172975 1.14978,0.163826 2.27776,1.665562 0.59385,0.79061 1.15126,1.437479 1.2387,1.437479 0.0875,0 1.25647,-1.453646 2.59787,-3.230335 1.69312,-2.24253 2.56061,-3.28837 2.83688,-3.420109 0.52893,-0.252231 1.17555,-0.12259 1.5852,0.317811 0.42838,0.46055 0.52553,0.936316 0.30096,1.473785 -0.29732,0.711601 -6.30404,8.567089 -6.6828,8.739661 -0.40648,0.185204 -0.91672,0.18416 -1.30451,-0.002 z m -32.08118,1.663215 c -2.06448,-0.347096 -3.88858,-2.087915 -4.36832,-4.168852 -0.18724,-0.812205 -0.1807,-42.986397 0.007,-43.877885 0.30197,-1.435639 1.22878,-2.809767 2.33066,-3.455513 1.33048,-0.779712 1.66461,-0.846053 4.64764,-0.922809 l 2.76995,-0.07127 0.0903,-0.529864 c 0.22761,-1.337093 0.45423,-1.442702 3.09095,-1.440499 1.16577,8.48e-4 2.26612,-0.02571 2.44526,-0.0593 0.25412,-0.04764 0.38831,-0.212136 0.61063,-0.748518 0.32251,-0.778106 1.16866,-1.78055 1.96602,-2.329146 0.65495,-0.450608 2.30457,-1.006281 2.98735,-1.006281 1.91561,0 4.29259,1.573144 5.01669,3.320172 0.15825,0.381793 0.37836,0.717494 0.48914,0.745998 0.11078,0.02848 1.21607,0.05981 2.45621,0.06958 2.78244,0.0219 2.98026,0.111201 3.20783,1.447988 l 0.0902,0.529864 2.76994,0.07104 c 2.37896,0.061 2.87079,0.108076 3.48439,0.333469 1.77149,0.6507 3.01725,2.034886 3.43798,3.819999 0.16659,0.706874 0.19295,2.660077 0.19457,14.417481 l 0.002,13.599834 -0.59875,-0.07553 c -2.08561,-0.263117 -2.73657,-0.358654 -2.82778,-0.415026 -0.0566,-0.03502 -0.10296,-6.059758 -0.10296,-13.388341 0,-12.733229 -0.0103,-13.344197 -0.23372,-13.763923 -0.12854,-0.24157 -0.45471,-0.56657 -0.72481,-0.722223 -0.46892,-0.270223 -0.60205,-0.281604 -2.94914,-0.252106 l -2.45804,0.0309 -0.0707,1.19751 c -0.0766,1.297742 -0.25886,1.742037 -0.81939,1.997428 -0.45554,0.20756 -20.20186,0.20756 -20.6574,0 -0.57195,-0.260599 -0.75294,-0.699181 -0.82428,-1.997428 l -0.0658,-1.19751 -2.45804,-0.0309 c -2.34709,-0.0295 -2.48022,-0.01813 -2.94914,0.252106 -0.2701,0.155653 -0.59627,0.480653 -0.72481,0.722223 -0.22493,0.422706 -0.23372,1.239518 -0.23372,21.725203 0,23.7047 -0.0717,21.842986 0.86429,22.425061 l 0.45928,0.28561 10.25495,0.06306 10.25496,0.06305 0.34575,0.945401 c 0.19016,0.519969 0.49829,1.245329 0.68471,1.611912 0.18643,0.366583 0.30523,0.721102 0.26398,0.787829 -0.0919,0.148661 -21.26864,0.139357 -22.1554,-0.0093 z m 24.8413,-49.901604 c 0.0227,-0.912391 -0.0142,-1.489009 -0.10079,-1.575673 -0.12169,-0.121757 -0.96266,-0.162895 -3.93529,-0.192504 -0.60573,-0.006 -0.78502,-0.06335 -1.10674,-0.353848 -0.31222,-0.281897 -0.4075,-0.499692 -0.51014,-1.166001 -0.23357,-1.516201 -1.16362,-2.389005 -2.5499,-2.392945 -1.33473,-0.0039 -2.38724,0.871806 -2.548,2.11973 -0.0417,0.323595 -0.15567,0.76993 -0.2533,0.991856 -0.32439,0.737453 -0.55698,0.802605 -2.91459,0.816397 -1.16926,0.0069 -2.2252,0.06332 -2.34652,0.125509 -0.1904,0.0976 -0.22059,0.308008 -0.22059,1.537248 0,0.783296 0.0383,1.462399 0.085,1.509123 0.0467,0.04673 3.74796,0.07036 8.22498,0.05252 l 8.14007,-0.03243 0.0358,-1.438987 z m -18.45143,39.55123 c -0.14512,-0.07039 -0.82297,-0.864935 -1.50633,-1.765658 -1.03232,-1.360694 -1.24248,-1.713476 -1.24248,-2.085683 0,-0.536889 0.39647,-0.919712 0.95249,-0.919712 0.41494,0 0.63848,0.199169 1.52199,1.356083 0.34692,0.454274 0.66322,0.753096 0.75633,0.714538 0.088,-0.03639 0.75564,-0.871035 1.4836,-1.854633 1.83612,-2.480927 2.07845,-2.737062 2.58961,-2.737062 0.69158,0 1.14267,0.77214 0.81202,1.389962 -0.33833,0.63218 -4.20874,5.633301 -4.50875,5.825948 -0.38665,0.248272 -0.4856,0.257059 -0.85848,0.07619 z m 9.33974,-1.498304 c -0.76263,-0.03722 -1.48246,-0.112883 -1.59963,-0.168147 -0.36384,-0.17162 -0.60632,-0.676599 -0.60632,-1.262695 0,-0.459474 0.0707,-0.632728 0.38786,-0.949836 0.44726,-0.447266 -0.0383,-0.40938 5.14397,-0.401409 1.9679,0.0031 3.6049,0.03236 3.63779,0.06533 0.0329,0.03287 -0.0605,0.228735 -0.20753,0.435223 -0.14703,0.206488 -0.4715,0.805351 -0.72104,1.330818 l -0.4537,0.955398 -0.64779,0.0083 c -0.35629,0.0052 -1.30012,0.01881 -2.09741,0.03153 -0.79729,0.01272 -2.07359,-0.0072 -2.8362,-0.04466 z m -9.66464,-7.274954 c -0.66617,-0.719849 -2.37213,-3.070502 -2.44812,-3.373298 -0.0946,-0.376698 0.21547,-0.911002 0.61417,-1.058493 0.51215,-0.189455 0.89205,0.04454 1.63184,1.005089 0.39696,0.515427 0.80498,0.954862 0.90669,0.976514 0.11496,0.02445 0.8081,-0.790964 1.83136,-2.154426 0.90552,-1.20659 1.78582,-2.257328 1.95622,-2.334967 0.62194,-0.283374 1.32783,0.190851 1.32783,0.892049 0,0.291129 -3.425,5.028072 -4.32705,5.984504 -0.50112,0.531333 -1.03855,0.554022 -1.49294,0.06303 z m 8.26394,-1.287926 c -0.72481,-0.297243 -1.05721,-1.479111 -0.59969,-2.132303 0.44555,-0.636102 0.55224,-0.644999 7.73582,-0.644999 7.33829,0 7.36238,0.0021 7.74393,0.740128 0.31442,0.608022 0.25356,1.209948 -0.17031,1.684412 l -0.36776,0.411664 -7.03789,0.02513 c -3.87083,0.01384 -7.15768,-0.02399 -7.3041,-0.08403 z m -7.96058,-6.895101 c -0.18677,-0.07521 -2.52123,-3.116572 -2.70972,-3.530236 -0.18629,-0.40888 0.0908,-0.990832 0.5652,-1.187365 0.5344,-0.221356 0.87232,-0.0072 1.71426,1.086226 0.37234,0.483585 0.74776,0.895888 0.83428,0.916224 0.0865,0.02034 0.90578,-0.960401 1.82064,-2.179425 0.91485,-1.219019 1.8052,-2.281023 1.97853,-2.359999 0.70622,-0.321775 1.50844,0.413701 1.23665,1.133754 -0.18438,0.488473 -4.26902,5.908575 -4.57696,6.07338 -0.25725,0.137668 -0.593,0.156129 -0.86288,0.04744 z m 7.95934,-1.609691 c -0.54506,-0.237224 -0.80401,-0.658855 -0.80401,-1.309139 0,-0.460236 0.0716,-0.623431 0.43165,-0.983443 l 0.43163,-0.431637 7.14199,0.03456 7.14197,0.03456 0.36776,0.411664 c 0.63691,0.71294 0.42202,1.81246 -0.43357,2.218467 -0.38552,0.182934 -1.18944,0.205521 -7.1591,0.20114 -5.38105,-0.0039 -6.80345,-0.03914 -7.11832,-0.176194 z m -7.89347,-6.924526 c -0.42336,-0.181725 -2.71851,-3.204251 -2.82054,-3.714407 -0.10058,-0.503092 0.39012,-1.028978 0.96019,-1.028978 0.43812,0 0.64613,0.183495 1.55138,1.368547 0.48692,0.63743 0.64031,0.764757 0.78083,0.648131 0.0962,-0.07983 0.8706,-1.062568 1.72093,-2.183873 0.85034,-1.12131 1.63344,-2.107848 1.74024,-2.192304 0.35105,-0.277622 0.97003,-0.193598 1.25648,0.170556 0.29338,0.372976 0.32608,0.742349 0.0992,1.120741 -0.0842,0.140453 -1.07872,1.483445 -2.21003,2.984425 -2.1681,2.876577 -2.4215,3.109267 -3.07871,2.827162 z m 7.78275,-1.612299 c -0.47304,-0.260145 -0.68758,-0.652297 -0.69049,-1.262102 -0.002,-0.48563 0.0621,-0.654031 0.36726,-0.959106 0.22112,-0.221136 0.56353,-0.402015 0.85085,-0.449495 0.8255,-0.136407 13.04257,-0.09293 13.55078,0.04821 0.64931,0.180341 1.11107,0.76404 1.11107,1.404481 0,0.408684 -0.0832,0.590353 -0.42858,0.935729 l -0.42859,0.428581 -7.04009,-0.0039 c -4.87591,-0.0026 -7.1176,-0.04646 -7.29221,-0.142473 z"
       id="path3348-0"
       inkscape:connector-curvature="0" />
  </g>
</svg>
